tests/fixtures/e2e/crossbar_2x2/dump.vcd
$timescale 1ns $end
$scope module top $end
$scope module u_xbar $end
$scope module iface_cpu0_mem0 $end
$var wire 32 $ m_axi_araddr $end
$var wire 4 % m_axi_arid $end
$var wire 8 & m_axi_arlen $end
$var wire 1 # m_axi_arready $end
$var wire 3 ' m_axi_arsize $end
$var wire 1 " m_axi_arvalid $end
$var wire 32 * m_axi_awaddr $end
$var wire 4 + m_axi_awid $end
$var wire 8 , m_axi_awlen $end
$var wire 1 ) m_axi_awready $end
$var wire 3 - m_axi_awsize $end
$var wire 1 ( m_axi_awvalid $end
$var wire 4 8 m_axi_bid $end
$var wire 1 7 m_axi_bready $end
$var wire 2 9 m_axi_bresp $end
$var wire 1 6 m_axi_bvalid $end
$var wire 4 0 m_axi_rid $end
$var wire 1 2 m_axi_rlast $end
$var wire 1 / m_axi_rready $end
$var wire 2 1 m_axi_rresp $end
$var wire 1 . m_axi_rvalid $end
$var wire 1 5 m_axi_wlast $end
$var wire 1 4 m_axi_wready $end
$var wire 1 3 m_axi_wvalid $end
$upscope $end
$scope module iface_cpu0_mem1 $end
$var wire 32 T m_axi_araddr $end
$var wire 4 U m_axi_arid $end
$var wire 8 V m_axi_arlen $end
$var wire 1 S m_axi_arready $end
$var wire 3 W m_axi_arsize $end
$var wire 1 R m_axi_arvalid $end
$var wire 32 Z m_axi_awaddr $end
$var wire 4 [ m_axi_awid $end
$var wire 8 \ m_axi_awlen $end
$var wire 1 Y m_axi_awready $end
$var wire 3 ] m_axi_awsize $end
$var wire 1 X m_axi_awvalid $end
$var wire 4 h m_axi_bid $end
$var wire 1 g m_axi_bready $end
$var wire 2 i m_axi_bresp $end
$var wire 1 f m_axi_bvalid $end
$var wire 4 ` m_axi_rid $end
$var wire 1 b m_axi_rlast $end
$var wire 1 _ m_axi_rready $end
$var wire 2 a m_axi_rresp $end
$var wire 1 ^ m_axi_rvalid $end
$var wire 1 e m_axi_wlast $end
$var wire 1 d m_axi_wready $end
$var wire 1 c m_axi_wvalid $end
$upscope $end
$scope module iface_cpu1_mem0 $end
$var wire 32 < m_axi_araddr $end
$var wire 4 = m_axi_arid $end
$var wire 8 > m_axi_arlen $end
$var wire 1 ; m_axi_arready $end
$var wire 3 ? m_axi_arsize $end
$var wire 1 : m_axi_arvalid $end
$var wire 32 B m_axi_awaddr $end
$var wire 4 C m_axi_awid $end
$var wire 8 D m_axi_awlen $end
$var wire 1 A m_axi_awready $end
$var wire 3 E m_axi_awsize $end
$var wire 1 @ m_axi_awvalid $end
$var wire 4 P m_axi_bid $end
$var wire 1 O m_axi_bready $end
$var wire 2 Q m_axi_bresp $end
$var wire 1 N m_axi_bvalid $end
$var wire 4 H m_axi_rid $end
$var wire 1 J m_axi_rlast $end
$var wire 1 G m_axi_rready $end
$var wire 2 I m_axi_rresp $end
$var wire 1 F m_axi_rvalid $end
$var wire 1 M m_axi_wlast $end
$var wire 1 L m_axi_wready $end
$var wire 1 K m_axi_wvalid $end
$upscope $end
$scope module iface_cpu1_mem1 $end
$var wire 32 l m_axi_araddr $end
$var wire 4 m m_axi_arid $end
$var wire 8 n m_axi_arlen $end
$var wire 1 k m_axi_arready $end
$var wire 3 o m_axi_arsize $end
$var wire 1 j m_axi_arvalid $end
$var wire 32 r m_axi_awaddr $end
$var wire 4 s m_axi_awid $end
$var wire 8 t m_axi_awlen $end
$var wire 1 q m_axi_awready $end
$var wire 3 u m_axi_awsize $end
$var wire 1 p m_axi_awvalid $end
$var wire 4 !" m_axi_bid $end
$var wire 1 !! m_axi_bready $end
$var wire 2 !# m_axi_bresp $end
$var wire 1 ~ m_axi_bvalid $end
$var wire 4 x m_axi_rid $end
$var wire 1 z m_axi_rlast $end
$var wire 1 w m_axi_rready $end
$var wire 2 y m_axi_rresp $end
$var wire 1 v m_axi_rvalid $end
$var wire 1 } m_axi_wlast $end
$var wire 1 | m_axi_wready $end
$var wire 1 { m_axi_wvalid $end
$upscope $end
$upscope $end
$var wire 1 ! clk $end
$upscope $end
$enddefinitions $end
#0
0!
0"
0#
b00000000000000000000000000000000 $
b0000 %
b00000000 &
b000 '
0(
0)
b00000000000000000000000000000000 *
b0000 +
b00000000 ,
b000 -
0.
0/
b0000 0
b00 1
02
03
04
05
06
07
b0000 8
b00 9
0:
0;
b00000000000000000000000000000000 <
b0000 =
b00000000 >
b000 ?
0@
0A
b00000000000000000000000000000000 B
b0000 C
b00000000 D
b000 E
0F
0G
b0000 H
b00 I
0J
0K
0L
0M
0N
0O
b0000 P
b00 Q
0R
0S
b00000000000000000000000000000000 T
b0000 U
b00000000 V
b000 W
0X
0Y
b00000000000000000000000000000000 Z
b0000 [
b00000000 \
b000 ]
0^
0_
b0000 `
b00 a
0b
0c
0d
0e
0f
0g
b0000 h
b00 i
0j
0k
b00000000000000000000000000000000 l
b0000 m
b00000000 n
b000 o
0p
0q
b00000000000000000000000000000000 r
b0000 s
b00000000 t
b000 u
0v
0w
b0000 x
b00 y
0z
0{
0|
0}
0~
0!!
b0000 !"
b00 !#
#5
1!
#10
0!
#15
1!
#20
0!
#25
1!
#30
0!
#35
1!
#40
0!
#45
1!
1"
1#
b0000 %
b00000000000000000001000000000000 $
#50
0!
#55
1!
0"
0#
#60
0!
#65
1!
1.
1/
b0000 0
12
#70
0!
#75
1!
0.
0/
02
#80
0!
#85
1!
1"
1#
b0001 %
b00000000000000000001000000001000 $
#90
0!
#95
1!
0"
0#
#100
0!
#105
1!
1.
1/
b0001 0
12
#110
0!
#115
1!
0.
0/
02
#120
0!
#125
1!
1"
1#
b0010 %
b00000000000000000001000000010000 $
#130
0!
#135
1!
0"
0#
#140
0!
#145
1!
1.
1/
b0010 0
12
#150
0!
#155
1!
0.
0/
02
#160
0!
#165
1!
1"
1#
b0011 %
b00000000000000000001000000011000 $
#170
0!
#175
1!
0"
0#
#180
0!
#185
1!
1.
1/
b0011 0
12
#190
0!
#195
1!
0.
0/
02
#200
0!
#205
1!
1"
1#
b0100 %
b00000000000000000001000000100000 $
#210
0!
#215
1!
0"
0#
#220
0!
#225
1!
1.
1/
b0100 0
12
#230
0!
#235
1!
0.
0/
02
#240
0!
#245
1!
1"
1#
b0101 %
b00000000000000000001000000101000 $
#250
0!
#255
1!
0"
0#
#260
0!
#265
1!
1.
1/
b0101 0
12
#270
0!
#275
1!
0.
0/
02
#280
0!
#285
1!
1"
1#
b0110 %
b00000000000000000001000000110000 $
#290
0!
#295
1!
0"
0#
#300
0!
#305
1!
1.
1/
b0110 0
12
#310
0!
#315
1!
0.
0/
02
#320
0!
#325
1!
1"
1#
b0111 %
b00000000000000000001000000111000 $
#330
0!
#335
1!
0"
0#
#340
0!
#345
1!
1.
1/
b0111 0
12
#350
0!
#355
1!
0.
0/
02
#360
0!
#365
1!
1"
1#
b1000 %
b00000000000000000001000001000000 $
#370
0!
#375
1!
0"
0#
#380
0!
#385
1!
1.
1/
b1000 0
12
#390
0!
#395
1!
0.
0/
02
#400
0!
#405
1!
1"
1#
b1001 %
b00000000000000000001000001001000 $
#410
0!
#415
1!
0"
0#
#420
0!
#425
1!
1.
1/
b1001 0
12
#430
0!
#435
1!
0.
0/
02
#440
0!
#445
1!
1"
1#
b1010 %
b00000000000000000001000001010000 $
#450
0!
#455
1!
0"
0#
#460
0!
#465
1!
1.
1/
b1010 0
12
#470
0!
#475
1!
0.
0/
02
#480
0!
#485
1!
1"
1#
b1011 %
b00000000000000000001000001011000 $
#490
0!
#495
1!
0"
0#
#500
0!
#505
1!
1.
1/
b1011 0
12
#510
0!
#515
1!
0.
0/
02
#520
0!
#525
1!
1"
1#
b1100 %
b00000000000000000001000001100000 $
#530
0!
#535
1!
0"
0#
#540
0!
#545
1!
1.
1/
b1100 0
12
#550
0!
#555
1!
0.
0/
02
#560
0!
#565
1!
1"
1#
b1101 %
b00000000000000000001000001101000 $
#570
0!
#575
1!
0"
0#
#580
0!
#585
1!
1.
1/
b1101 0
12
#590
0!
#595
1!
0.
0/
02
#600
0!
#605
1!
1"
1#
b1110 %
b00000000000000000001000001110000 $
#610
0!
#615
1!
0"
0#
#620
0!
#625
1!
1.
1/
b1110 0
12
#630
0!
#635
1!
0.
0/
02
#640
0!
#645
1!
1"
1#
b1111 %
b00000000000000000001000001111000 $
#650
0!
#655
1!
0"
0#
#660
0!
#665
1!
1.
1/
b1111 0
12
#670
0!
#675
1!
0.
0/
02
#680
0!
#685
1!
1"
1#
b0000 %
b00000000000000000001000010000000 $
#690
0!
#695
1!
0"
0#
#700
0!
#705
1!
1.
1/
b0000 0
12
#710
0!
#715
1!
0.
0/
02
#720
0!
#725
1!
1"
1#
b0001 %
b00000000000000000001000010001000 $
#730
0!
#735
1!
0"
0#
#740
0!
#745
1!
1.
1/
b0001 0
12
#750
0!
#755
1!
0.
0/
02
#760
0!
#765
1!
1"
1#
b0010 %
b00000000000000000001000010010000 $
#770
0!
#775
1!
0"
0#
#780
0!
#785
1!
1.
1/
b0010 0
12
#790
0!
#795
1!
0.
0/
02
#800
0!
#805
1!
1"
1#
b0011 %
b00000000000000000001000010011000 $
#810
0!
#815
1!
0"
0#
#820
0!
#825
1!
1.
1/
b0011 0
12
#830
0!
#835
1!
0.
0/
02
#840
0!
#845
1!
1"
1#
b0100 %
b00000000000000000001000010100000 $
#850
0!
#855
1!
0"
0#
#860
0!
#865
1!
1.
1/
b0100 0
12
#870
0!
#875
1!
0.
0/
02
#880
0!
#885
1!
1"
1#
b0101 %
b00000000000000000001000010101000 $
#890
0!
#895
1!
0"
0#
#900
0!
#905
1!
1.
1/
b0101 0
12
#910
0!
#915
1!
0.
0/
02
#920
0!
#925
1!
1"
1#
b0110 %
b00000000000000000001000010110000 $
#930
0!
#935
1!
0"
0#
#940
0!
#945
1!
1.
1/
b0110 0
12
#950
0!
#955
1!
0.
0/
02
#960
0!
#965
1!
1"
1#
b0111 %
b00000000000000000001000010111000 $
#970
0!
#975
1!
0"
0#
#980
0!
#985
1!
1.
1/
b0111 0
12
#990
0!
#995
1!
0.
0/
02
#1000
0!
#1005
1!
1"
1#
b1000 %
b00000000000000000001000011000000 $
#1010
0!
#1015
1!
0"
0#
#1020
0!
#1025
1!
1.
1/
b1000 0
12
#1030
0!
#1035
1!
0.
0/
02
#1040
0!
#1045
1!
1"
1#
b1001 %
b00000000000000000001000011001000 $
#1050
0!
#1055
1!
0"
0#
#1060
0!
#1065
1!
1.
1/
b1001 0
12
#1070
0!
#1075
1!
0.
0/
02
#1080
0!
#1085
1!
1"
1#
b1010 %
b00000000000000000001000011010000 $
#1090
0!
#1095
1!
0"
0#
#1100
0!
#1105
1!
1.
1/
b1010 0
12
#1110
0!
#1115
1!
0.
0/
02
#1120
0!
#1125
1!
1"
1#
b1011 %
b00000000000000000001000011011000 $
#1130
0!
#1135
1!
0"
0#
#1140
0!
#1145
1!
1.
1/
b1011 0
12
#1150
0!
#1155
1!
0.
0/
02
#1160
0!
#1165
1!
1"
1#
b1100 %
b00000000000000000001000011100000 $
#1170
0!
#1175
1!
0"
0#
#1180
0!
#1185
1!
1.
1/
b1100 0
12
#1190
0!
#1195
1!
0.
0/
02
#1200
0!
#1205
1!
1"
1#
b1101 %
b00000000000000000001000011101000 $
#1210
0!
#1215
1!
0"
0#
#1220
0!
#1225
1!
1.
1/
b1101 0
12
#1230
0!
#1235
1!
0.
0/
02
#1240
0!
#1245
1!
#1250
0!
#1255
1!
#1260
0!
#1265
1!
#1270
0!
#1275
1!
#1280
0!
#1285
1!
#1290
0!
#1295
1!
#1300
0!
#1305
1!
#1310
0!
#1315
1!
#1320
0!
#1325
1!
1(
1)
b0000 +
b00000000000000000100000000000000 *
#1330
0!
#1335
1!
0(
0)
13
14
15
#1340
0!
#1345
1!
03
04
05
#1350
0!
#1355
1!
#1360
0!
#1365
1!
16
17
b0000 8
#1370
0!
#1375
1!
06
07
#1380
0!
#1385
1!
1(
1)
b0001 +
b00000000000000000100000000001000 *
#1390
0!
#1395
1!
0(
0)
13
14
15
#1400
0!
#1405
1!
03
04
05
#1410
0!
#1415
1!
#1420
0!
#1425
1!
16
17
b0001 8
#1430
0!
#1435
1!
06
07
#1440
0!
#1445
1!
1(
1)
b0010 +
b00000000000000000100000000010000 *
#1450
0!
#1455
1!
0(
0)
13
14
15
#1460
0!
#1465
1!
03
04
05
#1470
0!
#1475
1!
#1480
0!
#1485
1!
16
17
b0010 8
#1490
0!
#1495
1!
06
07
#1500
0!
#1505
1!
1(
1)
b0011 +
b00000000000000000100000000011000 *
#1510
0!
#1515
1!
0(
0)
13
14
15
#1520
0!
#1525
1!
03
04
05
#1530
0!
#1535
1!
#1540
0!
#1545
1!
16
17
b0011 8
#1550
0!
#1555
1!
06
07
#1560
0!
#1565
1!
1(
1)
b0100 +
b00000000000000000100000000100000 *
#1570
0!
#1575
1!
0(
0)
13
14
15
#1580
0!
#1585
1!
03
04
05
#1590
0!
#1595
1!
#1600
0!
#1605
1!
16
17
b0100 8
#1610
0!
#1615
1!
06
07
#1620
0!
#1625
1!
1(
1)
b0101 +
b00000000000000000100000000101000 *
#1630
0!
#1635
1!
0(
0)
13
14
15
#1640
0!
#1645
1!
03
04
05
#1650
0!
#1655
1!
#1660
0!
#1665
1!
16
17
b0101 8
#1670
0!
#1675
1!
06
07
#1680
0!
#1685
1!
1(
1)
b0110 +
b00000000000000000100000000110000 *
#1690
0!
#1695
1!
0(
0)
13
14
15
#1700
0!
#1705
1!
03
04
05
#1710
0!
#1715
1!
#1720
0!
#1725
1!
16
17
b0110 8
#1730
0!
#1735
1!
06
07
#1740
0!
#1745
1!
1(
1)
b0111 +
b00000000000000000100000000111000 *
#1750
0!
#1755
1!
0(
0)
13
14
15
#1760
0!
#1765
1!
03
04
05
#1770
0!
#1775
1!
#1780
0!
#1785
1!
16
17
b0111 8
#1790
0!
#1795
1!
06
07
#1800
0!
#1805
1!
1(
1)
b1000 +
b00000000000000000100000001000000 *
#1810
0!
#1815
1!
0(
0)
13
14
15
#1820
0!
#1825
1!
03
04
05
#1830
0!
#1835
1!
#1840
0!
#1845
1!
16
17
b1000 8
#1850
0!
#1855
1!
06
07
#1860
0!
#1865
1!
1(
1)
b1001 +
b00000000000000000100000001001000 *
#1870
0!
#1875
1!
0(
0)
13
14
15
#1880
0!
#1885
1!
03
04
05
#1890
0!
#1895
1!
#1900
0!
#1905
1!
16
17
b1001 8
#1910
0!
#1915
1!
06
07
#1920
0!
#1925
1!
1(
1)
b1010 +
b00000000000000000100000001010000 *
#1930
0!
#1935
1!
0(
0)
13
14
15
#1940
0!
#1945
1!
03
04
05
#1950
0!
#1955
1!
#1960
0!
#1965
1!
16
17
b1010 8
#1970
0!
#1975
1!
06
07
#1980
0!
#1985
1!
1(
1)
b1011 +
b00000000000000000100000001011000 *
#1990
0!
#1995
1!
0(
0)
13
14
15
#2000
0!
#2005
1!
03
04
05
#2010
0!
#2015
1!
#2020
0!
#2025
1!
16
17
b1011 8
#2030
0!
#2035
1!
06
07
#2040
0!
#2045
1!
1(
1)
b1100 +
b00000000000000000100000001100000 *
#2050
0!
#2055
1!
0(
0)
13
14
15
#2060
0!
#2065
1!
03
04
05
#2070
0!
#2075
1!
#2080
0!
#2085
1!
16
17
b1100 8
#2090
0!
#2095
1!
06
07
#2100
0!
#2105
1!
1(
1)
b1101 +
b00000000000000000100000001101000 *
#2110
0!
#2115
1!
0(
0)
13
14
15
#2120
0!
#2125
1!
03
04
05
#2130
0!
#2135
1!
#2140
0!
#2145
1!
16
17
b1101 8
#2150
0!
#2155
1!
06
07
#2160
0!
#2165
1!
1(
1)
b1110 +
b00000000000000000100000001110000 *
#2170
0!
#2175
1!
0(
0)
13
14
15
#2180
0!
#2185
1!
03
04
05
#2190
0!
#2195
1!
#2200
0!
#2205
1!
16
17
b1110 8
#2210
0!
#2215
1!
06
07
#2220
0!
#2225
1!
1(
1)
b1111 +
b00000000000000000100000001111000 *
#2230
0!
#2235
1!
0(
0)
13
14
15
#2240
0!
#2245
1!
03
04
05
#2250
0!
#2255
1!
#2260
0!
#2265
1!
16
17
b1111 8
#2270
0!
#2275
1!
06
07
#2280
0!
#2285
1!
1(
1)
b0000 +
b00000000000000000100000010000000 *
#2290
0!
#2295
1!
0(
0)
13
14
15
#2300
0!
#2305
1!
03
04
05
#2310
0!
#2315
1!
#2320
0!
#2325
1!
16
17
b0000 8
#2330
0!
#2335
1!
06
07
#2340
0!
#2345
1!
1(
1)
b0001 +
b00000000000000000100000010001000 *
#2350
0!
#2355
1!
0(
0)
13
14
15
#2360
0!
#2365
1!
03
04
05
#2370
0!
#2375
1!
#2380
0!
#2385
1!
16
17
b0001 8
#2390
0!
#2395
1!
06
07
#2400
0!
#2405
1!
1(
1)
b0010 +
b00000000000000000100000010010000 *
#2410
0!
#2415
1!
0(
0)
13
14
15
#2420
0!
#2425
1!
03
04
05
#2430
0!
#2435
1!
#2440
0!
#2445
1!
16
17
b0010 8
#2450
0!
#2455
1!
06
07
#2460
0!
#2465
1!
1(
1)
b0011 +
b00000000000000000100000010011000 *
#2470
0!
#2475
1!
0(
0)
13
14
15
#2480
0!
#2485
1!
03
04
05
#2490
0!
#2495
1!
#2500
0!
#2505
1!
16
17
b0011 8
#2510
0!
#2515
1!
06
07
#2520
0!
#2525
1!
1(
1)
b0100 +
b00000000000000000100000010100000 *
#2530
0!
#2535
1!
0(
0)
13
14
15
#2540
0!
#2545
1!
03
04
05
#2550
0!
#2555
1!
#2560
0!
#2565
1!
16
17
b0100 8
#2570
0!
#2575
1!
06
07
#2580
0!
#2585
1!
1(
1)
b0101 +
b00000000000000000100000010101000 *
#2590
0!
#2595
1!
0(
0)
13
14
15
#2600
0!
#2605
1!
03
04
05
#2610
0!
#2615
1!
#2620
0!
#2625
1!
16
17
b0101 8
#2630
0!
#2635
1!
06
07
#2640
0!
#2645
1!
1(
1)
b0110 +
b00000000000000000100000010110000 *
#2650
0!
#2655
1!
0(
0)
13
14
15
#2660
0!
#2665
1!
03
04
05
#2670
0!
#2675
1!
#2680
0!
#2685
1!
16
17
b0110 8
#2690
0!
#2695
1!
06
07
#2700
0!
#2705
1!
1(
1)
b0111 +
b00000000000000000100000010111000 *
#2710
0!
#2715
1!
0(
0)
13
14
15
#2720
0!
#2725
1!
03
04
05
#2730
0!
#2735
1!
#2740
0!
#2745
1!
16
17
b0111 8
#2750
0!
#2755
1!
06
07
#2760
0!
#2765
1!
1(
1)
b1000 +
b00000000000000000100000011000000 *
#2770
0!
#2775
1!
0(
0)
13
14
15
#2780
0!
#2785
1!
03
04
05
#2790
0!
#2795
1!
#2800
0!
#2805
1!
16
17
b1000 8
#2810
0!
#2815
1!
06
07
#2820
0!
#2825
1!
1(
1)
b1001 +
b00000000000000000100000011001000 *
#2830
0!
#2835
1!
0(
0)
13
14
15
#2840
0!
#2845
1!
03
04
05
#2850
0!
#2855
1!
#2860
0!
#2865
1!
16
17
b1001 8
#2870
0!
#2875
1!
06
07
#2880
0!
#2885
1!
1(
1)
b1010 +
b00000000000000000100000011010000 *
#2890
0!
#2895
1!
0(
0)
13
14
15
#2900
0!
#2905
1!
03
04
05
#2910
0!
#2915
1!
#2920
0!
#2925
1!
16
17
b1010 8
#2930
0!
#2935
1!
06
07
#2940
0!
#2945
1!
1(
1)
b1011 +
b00000000000000000100000011011000 *
#2950
0!
#2955
1!
0(
0)
13
14
15
#2960
0!
#2965
1!
03
04
05
#2970
0!
#2975
1!
#2980
0!
#2985
1!
16
17
b1011 8
#2990
0!
#2995
1!
06
07
#3000
0!
#3005
1!
1(
1)
b1100 +
b00000000000000000100000011100000 *
#3010
0!
#3015
1!
0(
0)
13
14
15
#3020
0!
#3025
1!
03
04
05
#3030
0!
#3035
1!
#3040
0!
#3045
1!
16
17
b1100 8
#3050
0!
#3055
1!
06
07
#3060
0!
#3065
1!
1(
1)
b1101 +
b00000000000000000100000011101000 *
#3070
0!
#3075
1!
0(
0)
13
14
15
#3080
0!
#3085
1!
03
04
05
#3090
0!
#3095
1!
#3100
0!
#3105
1!
16
17
b1101 8
#3110
0!
#3115
1!
06
07
