tests/fixtures/e2e/out_of_order/dump.vcd
$timescale 1ns $end
$scope module top $end
$scope module u_cpu $end
$var wire 32 $ m_axi_araddr $end
$var wire 4 % m_axi_arid $end
$var wire 8 & m_axi_arlen $end
$var wire 1 # m_axi_arready $end
$var wire 3 ' m_axi_arsize $end
$var wire 1 " m_axi_arvalid $end
$var wire 32 * m_axi_awaddr $end
$var wire 4 + m_axi_awid $end
$var wire 8 , m_axi_awlen $end
$var wire 1 ) m_axi_awready $end
$var wire 3 - m_axi_awsize $end
$var wire 1 ( m_axi_awvalid $end
$var wire 4 8 m_axi_bid $end
$var wire 1 7 m_axi_bready $end
$var wire 2 9 m_axi_bresp $end
$var wire 1 6 m_axi_bvalid $end
$var wire 4 0 m_axi_rid $end
$var wire 1 2 m_axi_rlast $end
$var wire 1 / m_axi_rready $end
$var wire 2 1 m_axi_rresp $end
$var wire 1 . m_axi_rvalid $end
$var wire 1 5 m_axi_wlast $end
$var wire 1 4 m_axi_wready $end
$var wire 1 3 m_axi_wvalid $end
$upscope $end
$var wire 1 ! clk $end
$upscope $end
$enddefinitions $end
#0
0!
0"
0#
b00000000000000000000000000000000 $
b0000 %
b00000000 &
b000 '
0(
0)
b00000000000000000000000000000000 *
b0000 +
b00000000 ,
b000 -
0.
0/
b0000 0
b00 1
02
03
04
05
06
07
b0000 8
b00 9
#5
1!
#10
0!
#15
1!
#20
0!
#25
1!
#30
0!
#35
1!
#40
0!
#45
1!
1"
1#
b0000 %
b00000000000000001000000000000000 $
#50
0!
#55
1!
b0001 %
b00000000000000001000000000010000 $
#60
0!
#65
1!
b0010 %
b00000000000000001000000000100000 $
#70
0!
#75
1!
b0011 %
b00000000000000001000000000110000 $
#80
0!
#85
1!
b0100 %
b00000000000000001000000001000000 $
#90
0!
#95
1!
b0101 %
b00000000000000001000000001010000 $
#100
0!
#105
1!
b0110 %
b00000000000000001000000001100000 $
#110
0!
#115
1!
b0111 %
b00000000000000001000000001110000 $
#120
0!
#125
1!
0"
0#
#130
0!
#135
1!
#140
0!
#145
1!
#150
0!
#155
1!
#160
0!
#165
1!
#170
0!
#175
1!
#180
0!
#185
1!
#190
0!
#195
1!
#200
0!
#205
1!
#210
0!
#215
1!
1.
1/
b0001 0
12
#220
0!
#225
1!
0.
0/
02
#230
0!
#235
1!
#240
0!
#245
1!
1.
1/
b0101 0
12
#250
0!
#255
1!
0.
0/
02
#260
0!
#265
1!
#270
0!
#275
1!
1.
1/
b0011 0
12
#280
0!
#285
1!
0.
0/
02
#290
0!
#295
1!
1.
1/
b0000 0
12
#300
0!
#305
1!
0.
0/
02
#310
0!
#315
1!
#320
0!
#325
1!
#330
0!
#335
1!
1.
1/
b0111 0
12
#340
0!
#345
1!
0.
0/
02
#350
0!
#355
1!
#360
0!
#365
1!
#370
0!
#375
1!
1.
1/
b0100 0
12
#380
0!
#385
1!
0.
0/
02
#390
0!
#395
1!
#400
0!
#405
1!
#410
0!
#415
1!
#420
0!
#425
1!
#430
0!
#435
1!
#440
0!
#445
1!
1.
1/
b0010 0
12
#450
0!
#455
1!
0.
0/
02
#460
0!
#465
1!
#470
0!
#475
1!
#480
0!
#485
1!
#490
0!
#495
1!
1.
1/
b0110 0
12
#500
0!
#505
1!
0.
0/
02
#510
0!
#515
1!
#520
0!
#525
1!
#530
0!
#535
1!
#540
0!
#545
1!
#550
0!
#555
1!
#560
0!
#565
1!
#570
0!
#575
1!
#580
0!
#585
1!
#590
0!
#595
1!
1(
1)
b0000 +
b00000000000000001001000000000000 *
#600
0!
#605
1!
b0001 +
b00000000000000001001000000010000 *
13
14
15
#610
0!
#615
1!
b0010 +
b00000000000000001001000000100000 *
#620
0!
#625
1!
b0011 +
b00000000000000001001000000110000 *
#630
0!
#635
1!
b0100 +
b00000000000000001001000001000000 *
#640
0!
#645
1!
b0101 +
b00000000000000001001000001010000 *
#650
0!
#655
1!
b0110 +
b00000000000000001001000001100000 *
#660
0!
#665
1!
b0111 +
b00000000000000001001000001110000 *
#670
0!
#675
1!
0(
0)
#680
0!
#685
1!
03
04
05
#690
0!
#695
1!
#700
0!
#705
1!
#710
0!
#715
1!
#720
0!
#725
1!
#730
0!
#735
1!
#740
0!
#745
1!
16
17
b0101 8
#750
0!
#755
1!
06
07
#760
0!
#765
1!
#770
0!
#775
1!
16
17
b0001 8
#780
0!
#785
1!
06
07
#790
0!
#795
1!
#800
0!
#805
1!
#810
0!
#815
1!
16
17
b0011 8
#820
0!
#825
1!
06
07
#830
0!
#835
1!
#840
0!
#845
1!
#850
0!
#855
1!
16
17
b0111 8
#860
0!
#865
1!
06
07
#870
0!
#875
1!
16
17
b0000 8
#880
0!
#885
1!
06
07
#890
0!
#895
1!
#900
0!
#905
1!
#910
0!
#915
1!
16
17
b0100 8
#920
0!
#925
1!
06
07
#930
0!
#935
1!
#940
0!
#945
1!
16
17
b0010 8
#950
0!
#955
1!
06
07
#960
0!
#965
1!
#970
0!
#975
1!
#980
0!
#985
1!
#990
0!
#995
1!
16
17
b0110 8
#1000
0!
#1005
1!
06
07
