tests/fixtures/e2e/errors/dump.vcd
$timescale 1ns $end
$scope module top $end
$scope module u_cpu $end
$var wire 32 $ m_axi_araddr $end
$var wire 4 % m_axi_arid $end
$var wire 8 & m_axi_arlen $end
$var wire 1 # m_axi_arready $end
$var wire 3 ' m_axi_arsize $end
$var wire 1 " m_axi_arvalid $end
$var wire 32 * m_axi_awaddr $end
$var wire 4 + m_axi_awid $end
$var wire 8 , m_axi_awlen $end
$var wire 1 ) m_axi_awready $end
$var wire 3 - m_axi_awsize $end
$var wire 1 ( m_axi_awvalid $end
$var wire 4 8 m_axi_bid $end
$var wire 1 7 m_axi_bready $end
$var wire 2 9 m_axi_bresp $end
$var wire 1 6 m_axi_bvalid $end
$var wire 4 0 m_axi_rid $end
$var wire 1 2 m_axi_rlast $end
$var wire 1 / m_axi_rready $end
$var wire 2 1 m_axi_rresp $end
$var wire 1 . m_axi_rvalid $end
$var wire 1 5 m_axi_wlast $end
$var wire 1 4 m_axi_wready $end
$var wire 1 3 m_axi_wvalid $end
$upscope $end
$var wire 1 ! clk $end
$upscope $end
$enddefinitions $end
#0
0!
0"
0#
b00000000000000000000000000000000 $
b0000 %
b00000000 &
b000 '
0(
0)
b00000000000000000000000000000000 *
b0000 +
b00000000 ,
b000 -
0.
0/
b0000 0
b00 1
02
03
04
05
06
07
b0000 8
b00 9
#5
1!
#10
0!
#15
1!
#20
0!
#25
1!
1"
1#
b0000 %
b00000000000000000001000000000000 $
#30
0!
#35
1!
0"
0#
#40
0!
#45
1!
1.
1/
b0000 0
b00 1
12
#50
0!
#55
1!
0.
0/
02
b00 1
#60
0!
#65
1!
#70
0!
#75
1!
#80
0!
#85
1!
#90
0!
#95
1!
#100
0!
#105
1!
#110
0!
#115
1!
#120
0!
#125
1!
#130
0!
#135
1!
#140
0!
#145
1!
1"
1#
b0001 %
b00000000000000000001000000001000 $
#150
0!
#155
1!
0"
0#
#160
0!
#165
1!
1.
1/
b0001 0
b00 1
12
#170
0!
#175
1!
0.
0/
02
b00 1
#180
0!
#185
1!
#190
0!
#195
1!
#200
0!
#205
1!
#210
0!
#215
1!
#220
0!
#225
1!
#230
0!
#235
1!
#240
0!
#245
1!
#250
0!
#255
1!
#260
0!
#265
1!
#270
0!
#275
1!
#280
0!
#285
1!
#290
0!
#295
1!
1"
1#
b0010 %
b00000000000000000001000000010000 $
#300
0!
#305
1!
0"
0#
#310
0!
#315
1!
1.
1/
b0010 0
b10 1
12
#320
0!
#325
1!
0.
0/
02
b00 1
#330
0!
#335
1!
#340
0!
#345
1!
#350
0!
#355
1!
#360
0!
#365
1!
#370
0!
#375
1!
#380
0!
#385
1!
#390
0!
#395
1!
#400
0!
#405
1!
#410
0!
#415
1!
#420
0!
#425
1!
#430
0!
#435
1!
#440
0!
#445
1!
1"
1#
b0011 %
b00000000000000000001000000011000 $
#450
0!
#455
1!
0"
0#
#460
0!
#465
1!
1.
1/
b0011 0
b10 1
12
#470
0!
#475
1!
0.
0/
02
b00 1
#480
0!
#485
1!
#490
0!
#495
1!
#500
0!
#505
1!
#510
0!
#515
1!
#520
0!
#525
1!
#530
0!
#535
1!
#540
0!
#545
1!
#550
0!
#555
1!
#560
0!
#565
1!
#570
0!
#575
1!
#580
0!
#585
1!
#590
0!
#595
1!
1"
1#
b0100 %
b00000000000000000001000000100000 $
#600
0!
#605
1!
0"
0#
#610
0!
#615
1!
1.
1/
b0100 0
b11 1
12
#620
0!
#625
1!
0.
0/
02
b00 1
#630
0!
#635
1!
#640
0!
#645
1!
#650
0!
#655
1!
#660
0!
#665
1!
#670
0!
#675
1!
#680
0!
#685
1!
#690
0!
#695
1!
#700
0!
#705
1!
#710
0!
#715
1!
#720
0!
#725
1!
#730
0!
#735
1!
#740
0!
#745
1!
1"
1#
b0101 %
b00000000000000000001000000101000 $
#750
0!
#755
1!
0"
0#
#760
0!
#765
1!
1.
1/
b0101 0
b11 1
12
#770
0!
#775
1!
0.
0/
02
b00 1
