tests/fixtures/e2e/single_master_single_slave/dump.vcd
$timescale 1ns $end
$scope module top $end
$scope module u_cpu $end
$var wire 32 $ m_axi_araddr $end
$var wire 4 % m_axi_arid $end
$var wire 8 & m_axi_arlen $end
$var wire 1 # m_axi_arready $end
$var wire 3 ' m_axi_arsize $end
$var wire 1 " m_axi_arvalid $end
$var wire 32 * m_axi_awaddr $end
$var wire 4 + m_axi_awid $end
$var wire 8 , m_axi_awlen $end
$var wire 1 ) m_axi_awready $end
$var wire 3 - m_axi_awsize $end
$var wire 1 ( m_axi_awvalid $end
$var wire 4 8 m_axi_bid $end
$var wire 1 7 m_axi_bready $end
$var wire 2 9 m_axi_bresp $end
$var wire 1 6 m_axi_bvalid $end
$var wire 4 0 m_axi_rid $end
$var wire 1 2 m_axi_rlast $end
$var wire 1 / m_axi_rready $end
$var wire 2 1 m_axi_rresp $end
$var wire 1 . m_axi_rvalid $end
$var wire 1 5 m_axi_wlast $end
$var wire 1 4 m_axi_wready $end
$var wire 1 3 m_axi_wvalid $end
$upscope $end
$var wire 1 ! clk $end
$upscope $end
$enddefinitions $end
#0
0!
0"
0#
b00000000000000000000000000000000 $
b0000 %
b00000000 &
b000 '
0(
0)
b00000000000000000000000000000000 *
b0000 +
b00000000 ,
b000 -
0.
0/
b0000 0
b00 1
02
03
04
05
06
07
b0000 8
b00 9
#5
1!
#10
0!
#15
1!
#20
0!
#25
1!
#30
0!
#35
1!
#40
0!
#45
1!
1"
1#
b0000 %
b00000000000000000001000000000000 $
#50
0!
#55
1!
0"
0#
#60
0!
#65
1!
1.
1/
b0000 0
b10 1
12
#70
0!
#75
1!
0.
0/
02
b00 1
#80
0!
#85
1!
#90
0!
#95
1!
#100
0!
#105
1!
#110
0!
#115
1!
#120
0!
#125
1!
1"
1#
b0001 %
b00000000000000000001000001000000 $
#130
0!
#135
1!
0"
0#
#140
0!
#145
1!
#150
0!
#155
1!
1.
1/
b0001 0
b00 1
12
#160
0!
#165
1!
0.
0/
02
#170
0!
#175
1!
#180
0!
#185
1!
#190
0!
#195
1!
#200
0!
#205
1!
1"
1#
b0010 %
b00000000000000000001000010000000 $
#210
0!
#215
1!
0"
0#
#220
0!
#225
1!
#230
0!
#235
1!
#240
0!
#245
1!
1.
1/
b0010 0
b00 1
12
#250
0!
#255
1!
0.
0/
02
#260
0!
#265
1!
#270
0!
#275
1!
#280
0!
#285
1!
1"
1#
b0011 %
b00000000000000000001000011000000 $
#290
0!
#295
1!
0"
0#
#300
0!
#305
1!
#310
0!
#315
1!
#320
0!
#325
1!
#330
0!
#335
1!
1.
1/
b0011 0
b00 1
12
#340
0!
#345
1!
0.
0/
02
#350
0!
#355
1!
#360
0!
#365
1!
1"
1#
b0100 %
b00000000000000000001000100000000 $
#370
0!
#375
1!
0"
0#
#380
0!
#385
1!
1.
1/
b0100 0
b00 1
12
#390
0!
#395
1!
0.
0/
02
#400
0!
#405
1!
#410
0!
#415
1!
#420
0!
#425
1!
#430
0!
#435
1!
#440
0!
#445
1!
1"
1#
b0101 %
b00000000000000000001000101000000 $
#450
0!
#455
1!
0"
0#
#460
0!
#465
1!
#470
0!
#475
1!
1.
1/
b0101 0
b00 1
12
#480
0!
#485
1!
0.
0/
02
#490
0!
#495
1!
#500
0!
#505
1!
#510
0!
#515
1!
#520
0!
#525
1!
1"
1#
b0110 %
b00000000000000000001000110000000 $
#530
0!
#535
1!
0"
0#
#540
0!
#545
1!
#550
0!
#555
1!
#560
0!
#565
1!
1.
1/
b0110 0
b00 1
12
#570
0!
#575
1!
0.
0/
02
#580
0!
#585
1!
#590
0!
#595
1!
#600
0!
#605
1!
1"
1#
b0111 %
b00000000000000000001000111000000 $
#610
0!
#615
1!
0"
0#
#620
0!
#625
1!
#630
0!
#635
1!
#640
0!
#645
1!
#650
0!
#655
1!
1.
1/
b0111 0
b00 1
12
#660
0!
#665
1!
0.
0/
02
#670
0!
#675
1!
#680
0!
#685
1!
1"
1#
b1000 %
b00000000000000000001001000000000 $
#690
0!
#695
1!
0"
0#
#700
0!
#705
1!
1.
1/
b1000 0
b00 1
12
#710
0!
#715
1!
0.
0/
02
#720
0!
#725
1!
#730
0!
#735
1!
#740
0!
#745
1!
#750
0!
#755
1!
#760
0!
#765
1!
1"
1#
b1001 %
b00000000000000000001001001000000 $
#770
0!
#775
1!
0"
0#
#780
0!
#785
1!
#790
0!
#795
1!
1.
1/
b1001 0
b00 1
12
#800
0!
#805
1!
0.
0/
02
#810
0!
#815
1!
#820
0!
#825
1!
#830
0!
#835
1!
#840
0!
#845
1!
1"
1#
b1010 %
b00000000000000000001001010000000 $
#850
0!
#855
1!
0"
0#
#860
0!
#865
1!
#870
0!
#875
1!
#880
0!
#885
1!
1.
1/
b1010 0
b00 1
12
#890
0!
#895
1!
0.
0/
02
#900
0!
#905
1!
#910
0!
#915
1!
#920
0!
#925
1!
1"
1#
b1011 %
b00000000000000000001001011000000 $
#930
0!
#935
1!
0"
0#
#940
0!
#945
1!
#950
0!
#955
1!
#960
0!
#965
1!
#970
0!
#975
1!
1.
1/
b1011 0
b00 1
12
#980
0!
#985
1!
0.
0/
02
#990
0!
#995
1!
#1000
0!
#1005
1!
1"
1#
b1100 %
b00000000000000000001001100000000 $
#1010
0!
#1015
1!
0"
0#
#1020
0!
#1025
1!
1.
1/
b1100 0
b00 1
12
#1030
0!
#1035
1!
0.
0/
02
#1040
0!
#1045
1!
#1050
0!
#1055
1!
#1060
0!
#1065
1!
#1070
0!
#1075
1!
#1080
0!
#1085
1!
1"
1#
b1101 %
b00000000000000000001001101000000 $
#1090
0!
#1095
1!
0"
0#
#1100
0!
#1105
1!
#1110
0!
#1115
1!
1.
1/
b1101 0
b00 1
12
#1120
0!
#1125
1!
0.
0/
02
#1130
0!
#1135
1!
#1140
0!
#1145
1!
#1150
0!
#1155
1!
#1160
0!
#1165
1!
1"
1#
b1110 %
b00000000000000000001001110000000 $
#1170
0!
#1175
1!
0"
0#
#1180
0!
#1185
1!
#1190
0!
#1195
1!
#1200
0!
#1205
1!
1.
1/
b1110 0
b00 1
12
#1210
0!
#1215
1!
0.
0/
02
#1220
0!
#1225
1!
#1230
0!
#1235
1!
#1240
0!
#1245
1!
1"
1#
b1111 %
b00000000000000000001001111000000 $
#1250
0!
#1255
1!
0"
0#
#1260
0!
#1265
1!
#1270
0!
#1275
1!
#1280
0!
#1285
1!
#1290
0!
#1295
1!
1.
1/
b1111 0
b00 1
12
#1300
0!
#1305
1!
0.
0/
02
#1310
0!
#1315
1!
#1320
0!
#1325
1!
1"
1#
b0000 %
b00000000000000000001010000000000 $
#1330
0!
#1335
1!
0"
0#
#1340
0!
#1345
1!
1.
1/
b0000 0
b00 1
12
#1350
0!
#1355
1!
0.
0/
02
#1360
0!
#1365
1!
#1370
0!
#1375
1!
#1380
0!
#1385
1!
#1390
0!
#1395
1!
#1400
0!
#1405
1!
1"
1#
b0001 %
b00000000000000000001010001000000 $
#1410
0!
#1415
1!
0"
0#
#1420
0!
#1425
1!
#1430
0!
#1435
1!
1.
1/
b0001 0
b00 1
12
#1440
0!
#1445
1!
0.
0/
02
#1450
0!
#1455
1!
#1460
0!
#1465
1!
#1470
0!
#1475
1!
#1480
0!
#1485
1!
1"
1#
b0010 %
b00000000000000000001010010000000 $
#1490
0!
#1495
1!
0"
0#
#1500
0!
#1505
1!
#1510
0!
#1515
1!
#1520
0!
#1525
1!
1.
1/
b0010 0
b00 1
12
#1530
0!
#1535
1!
0.
0/
02
#1540
0!
#1545
1!
#1550
0!
#1555
1!
#1560
0!
#1565
1!
1"
1#
b0011 %
b00000000000000000001010011000000 $
#1570
0!
#1575
1!
0"
0#
#1580
0!
#1585
1!
#1590
0!
#1595
1!
#1600
0!
#1605
1!
#1610
0!
#1615
1!
1.
1/
b0011 0
b00 1
12
#1620
0!
#1625
1!
0.
0/
02
#1630
0!
#1635
1!
#1640
0!
#1645
1!
1"
1#
b0100 %
b00000000000000000001010100000000 $
#1650
0!
#1655
1!
0"
0#
#1660
0!
#1665
1!
1.
1/
b0100 0
b11 1
12
#1670
0!
#1675
1!
0.
0/
02
b00 1
#1680
0!
#1685
1!
#1690
0!
#1695
1!
#1700
0!
#1705
1!
#1710
0!
#1715
1!
#1720
0!
#1725
1!
1"
1#
b0101 %
b00000000000000000001010101000000 $
#1730
0!
#1735
1!
0"
0#
#1740
0!
#1745
1!
#1750
0!
#1755
1!
1.
1/
b0101 0
b00 1
12
#1760
0!
#1765
1!
0.
0/
02
#1770
0!
#1775
1!
#1780
0!
#1785
1!
#1790
0!
#1795
1!
#1800
0!
#1805
1!
1"
1#
b0110 %
b00000000000000000001010110000000 $
#1810
0!
#1815
1!
0"
0#
#1820
0!
#1825
1!
#1830
0!
#1835
1!
#1840
0!
#1845
1!
1.
1/
b0110 0
b00 1
12
#1850
0!
#1855
1!
0.
0/
02
#1860
0!
#1865
1!
#1870
0!
#1875
1!
#1880
0!
#1885
1!
1"
1#
b0111 %
b00000000000000000001010111000000 $
#1890
0!
#1895
1!
0"
0#
#1900
0!
#1905
1!
#1910
0!
#1915
1!
#1920
0!
#1925
1!
#1930
0!
#1935
1!
1.
1/
b0111 0
b00 1
12
#1940
0!
#1945
1!
0.
0/
02
#1950
0!
#1955
1!
#1960
0!
#1965
1!
1"
1#
b1000 %
b00000000000000000001011000000000 $
#1970
0!
#1975
1!
0"
0#
#1980
0!
#1985
1!
1.
1/
b1000 0
b00 1
12
#1990
0!
#1995
1!
0.
0/
02
#2000
0!
#2005
1!
#2010
0!
#2015
1!
#2020
0!
#2025
1!
#2030
0!
#2035
1!
#2040
0!
#2045
1!
1"
1#
b1001 %
b00000000000000000001011001000000 $
#2050
0!
#2055
1!
0"
0#
#2060
0!
#2065
1!
#2070
0!
#2075
1!
1.
1/
b1001 0
b00 1
12
#2080
0!
#2085
1!
0.
0/
02
#2090
0!
#2095
1!
#2100
0!
#2105
1!
#2110
0!
#2115
1!
#2120
0!
#2125
1!
1"
1#
b1010 %
b00000000000000000001011010000000 $
#2130
0!
#2135
1!
0"
0#
#2140
0!
#2145
1!
#2150
0!
#2155
1!
#2160
0!
#2165
1!
1.
1/
b1010 0
b00 1
12
#2170
0!
#2175
1!
0.
0/
02
#2180
0!
#2185
1!
#2190
0!
#2195
1!
#2200
0!
#2205
1!
1"
1#
b1011 %
b00000000000000000001011011000000 $
#2210
0!
#2215
1!
0"
0#
#2220
0!
#2225
1!
#2230
0!
#2235
1!
#2240
0!
#2245
1!
#2250
0!
#2255
1!
1.
1/
b1011 0
b00 1
12
#2260
0!
#2265
1!
0.
0/
02
#2270
0!
#2275
1!
#2280
0!
#2285
1!
1"
1#
b1100 %
b00000000000000000001011100000000 $
#2290
0!
#2295
1!
0"
0#
#2300
0!
#2305
1!
1.
1/
b1100 0
b00 1
12
#2310
0!
#2315
1!
0.
0/
02
#2320
0!
#2325
1!
#2330
0!
#2335
1!
#2340
0!
#2345
1!
#2350
0!
#2355
1!
#2360
0!
#2365
1!
1"
1#
b1101 %
b00000000000000000001011101000000 $
#2370
0!
#2375
1!
0"
0#
#2380
0!
#2385
1!
#2390
0!
#2395
1!
1.
1/
b1101 0
b00 1
12
#2400
0!
#2405
1!
0.
0/
02
#2410
0!
#2415
1!
#2420
0!
#2425
1!
#2430
0!
#2435
1!
#2440
0!
#2445
1!
1"
1#
b1110 %
b00000000000000000001011110000000 $
#2450
0!
#2455
1!
0"
0#
#2460
0!
#2465
1!
#2470
0!
#2475
1!
#2480
0!
#2485
1!
1.
1/
b1110 0
b00 1
12
#2490
0!
#2495
1!
0.
0/
02
#2500
0!
#2505
1!
#2510
0!
#2515
1!
#2520
0!
#2525
1!
1"
1#
b1111 %
b00000000000000000001011111000000 $
#2530
0!
#2535
1!
0"
0#
#2540
0!
#2545
1!
#2550
0!
#2555
1!
#2560
0!
#2565
1!
#2570
0!
#2575
1!
1.
1/
b1111 0
b00 1
12
#2580
0!
#2585
1!
0.
0/
02
#2590
0!
#2595
1!
#2600
0!
#2605
1!
1"
1#
b0000 %
b00000000000000000001100000000000 $
#2610
0!
#2615
1!
0"
0#
#2620
0!
#2625
1!
1.
1/
b0000 0
b00 1
12
#2630
0!
#2635
1!
0.
0/
02
#2640
0!
#2645
1!
#2650
0!
#2655
1!
#2660
0!
#2665
1!
#2670
0!
#2675
1!
#2680
0!
#2685
1!
1"
1#
b0001 %
b00000000000000000001100001000000 $
#2690
0!
#2695
1!
0"
0#
#2700
0!
#2705
1!
#2710
0!
#2715
1!
1.
1/
b0001 0
b00 1
12
#2720
0!
#2725
1!
0.
0/
02
#2730
0!
#2735
1!
#2740
0!
#2745
1!
#2750
0!
#2755
1!
#2760
0!
#2765
1!
1"
1#
b0010 %
b00000000000000000001100010000000 $
#2770
0!
#2775
1!
0"
0#
#2780
0!
#2785
1!
#2790
0!
#2795
1!
#2800
0!
#2805
1!
1.
1/
b0010 0
b00 1
12
#2810
0!
#2815
1!
0.
0/
02
#2820
0!
#2825
1!
#2830
0!
#2835
1!
#2840
0!
#2845
1!
1"
1#
b0011 %
b00000000000000000001100011000000 $
#2850
0!
#2855
1!
0"
0#
#2860
0!
#2865
1!
#2870
0!
#2875
1!
#2880
0!
#2885
1!
#2890
0!
#2895
1!
1.
1/
b0011 0
b00 1
12
#2900
0!
#2905
1!
0.
0/
02
#2910
0!
#2915
1!
#2920
0!
#2925
1!
1"
1#
b0100 %
b00000000000000000001100100000000 $
#2930
0!
#2935
1!
0"
0#
#2940
0!
#2945
1!
1.
1/
b0100 0
b00 1
12
#2950
0!
#2955
1!
0.
0/
02
#2960
0!
#2965
1!
#2970
0!
#2975
1!
#2980
0!
#2985
1!
#2990
0!
#2995
1!
#3000
0!
#3005
1!
1"
1#
b0101 %
b00000000000000000001100101000000 $
#3010
0!
#3015
1!
0"
0#
#3020
0!
#3025
1!
#3030
0!
#3035
1!
1.
1/
b0101 0
b00 1
12
#3040
0!
#3045
1!
0.
0/
02
#3050
0!
#3055
1!
#3060
0!
#3065
1!
#3070
0!
#3075
1!
#3080
0!
#3085
1!
1"
1#
b0110 %
b00000000000000000001100110000000 $
#3090
0!
#3095
1!
0"
0#
#3100
0!
#3105
1!
#3110
0!
#3115
1!
#3120
0!
#3125
1!
1.
1/
b0110 0
b00 1
12
#3130
0!
#3135
1!
0.
0/
02
#3140
0!
#3145
1!
#3150
0!
#3155
1!
#3160
0!
#3165
1!
1"
1#
b0111 %
b00000000000000000001100111000000 $
#3170
0!
#3175
1!
0"
0#
#3180
0!
#3185
1!
#3190
0!
#3195
1!
#3200
0!
#3205
1!
#3210
0!
#3215
1!
1.
1/
b0111 0
b00 1
12
#3220
0!
#3225
1!
0.
0/
02
#3230
0!
#3235
1!
#3240
0!
#3245
1!
1"
1#
b1000 %
b00000000000000000001101000000000 $
#3250
0!
#3255
1!
0"
0#
#3260
0!
#3265
1!
1.
1/
b1000 0
b10 1
12
#3270
0!
#3275
1!
0.
0/
02
b00 1
#3280
0!
#3285
1!
#3290
0!
#3295
1!
#3300
0!
#3305
1!
#3310
0!
#3315
1!
#3320
0!
#3325
1!
1"
1#
b1001 %
b00000000000000000001101001000000 $
#3330
0!
#3335
1!
0"
0#
#3340
0!
#3345
1!
#3350
0!
#3355
1!
1.
1/
b1001 0
b00 1
12
#3360
0!
#3365
1!
0.
0/
02
#3370
0!
#3375
1!
#3380
0!
#3385
1!
#3390
0!
#3395
1!
#3400
0!
#3405
1!
1"
1#
b1010 %
b00000000000000000001101010000000 $
#3410
0!
#3415
1!
0"
0#
#3420
0!
#3425
1!
#3430
0!
#3435
1!
#3440
0!
#3445
1!
1.
1/
b1010 0
b00 1
12
#3450
0!
#3455
1!
0.
0/
02
#3460
0!
#3465
1!
#3470
0!
#3475
1!
#3480
0!
#3485
1!
1"
1#
b1011 %
b00000000000000000001101011000000 $
#3490
0!
#3495
1!
0"
0#
#3500
0!
#3505
1!
#3510
0!
#3515
1!
#3520
0!
#3525
1!
#3530
0!
#3535
1!
1.
1/
b1011 0
b00 1
12
#3540
0!
#3545
1!
0.
0/
02
#3550
0!
#3555
1!
#3560
0!
#3565
1!
1"
1#
b1100 %
b00000000000000000001101100000000 $
#3570
0!
#3575
1!
0"
0#
#3580
0!
#3585
1!
1.
1/
b1100 0
b00 1
12
#3590
0!
#3595
1!
0.
0/
02
#3600
0!
#3605
1!
#3610
0!
#3615
1!
#3620
0!
#3625
1!
#3630
0!
#3635
1!
#3640
0!
#3645
1!
1"
1#
b1101 %
b00000000000000000001101101000000 $
#3650
0!
#3655
1!
0"
0#
#3660
0!
#3665
1!
#3670
0!
#3675
1!
1.
1/
b1101 0
b00 1
12
#3680
0!
#3685
1!
0.
0/
02
#3690
0!
#3695
1!
#3700
0!
#3705
1!
#3710
0!
#3715
1!
#3720
0!
#3725
1!
1"
1#
b1110 %
b00000000000000000001101110000000 $
#3730
0!
#3735
1!
0"
0#
#3740
0!
#3745
1!
#3750
0!
#3755
1!
#3760
0!
#3765
1!
1.
1/
b1110 0
b00 1
12
#3770
0!
#3775
1!
0.
0/
02
#3780
0!
#3785
1!
#3790
0!
#3795
1!
#3800
0!
#3805
1!
1"
1#
b1111 %
b00000000000000000001101111000000 $
#3810
0!
#3815
1!
0"
0#
#3820
0!
#3825
1!
#3830
0!
#3835
1!
#3840
0!
#3845
1!
#3850
0!
#3855
1!
1.
1/
b1111 0
b00 1
12
#3860
0!
#3865
1!
0.
0/
02
#3870
0!
#3875
1!
#3880
0!
#3885
1!
1"
1#
b0000 %
b00000000000000000001110000000000 $
#3890
0!
#3895
1!
0"
0#
#3900
0!
#3905
1!
1.
1/
b0000 0
b00 1
12
#3910
0!
#3915
1!
0.
0/
02
#3920
0!
#3925
1!
#3930
0!
#3935
1!
#3940
0!
#3945
1!
#3950
0!
#3955
1!
#3960
0!
#3965
1!
1"
1#
b0001 %
b00000000000000000001110001000000 $
#3970
0!
#3975
1!
0"
0#
#3980
0!
#3985
1!
#3990
0!
#3995
1!
1.
1/
b0001 0
b00 1
12
#4000
0!
#4005
1!
0.
0/
02
#4010
0!
#4015
1!
#4020
0!
#4025
1!
#4030
0!
#4035
1!
#4040
0!
#4045
1!
1"
1#
b0010 %
b00000000000000000001110010000000 $
#4050
0!
#4055
1!
0"
0#
#4060
0!
#4065
1!
#4070
0!
#4075
1!
#4080
0!
#4085
1!
1.
1/
b0010 0
b00 1
12
#4090
0!
#4095
1!
0.
0/
02
#4100
0!
#4105
1!
#4110
0!
#4115
1!
#4120
0!
#4125
1!
1"
1#
b0011 %
b00000000000000000001110011000000 $
#4130
0!
#4135
1!
0"
0#
#4140
0!
#4145
1!
#4150
0!
#4155
1!
#4160
0!
#4165
1!
#4170
0!
#4175
1!
1.
1/
b0011 0
b00 1
12
#4180
0!
#4185
1!
0.
0/
02
#4190
0!
#4195
1!
#4200
0!
#4205
1!
1"
1#
b0100 %
b00000000000000000001110100000000 $
#4210
0!
#4215
1!
0"
0#
#4220
0!
#4225
1!
1.
1/
b0100 0
b00 1
12
#4230
0!
#4235
1!
0.
0/
02
#4240
0!
#4245
1!
#4250
0!
#4255
1!
#4260
0!
#4265
1!
#4270
0!
#4275
1!
#4280
0!
#4285
1!
1"
1#
b0101 %
b00000000000000000001110101000000 $
#4290
0!
#4295
1!
0"
0#
#4300
0!
#4305
1!
#4310
0!
#4315
1!
1.
1/
b0101 0
b00 1
12
#4320
0!
#4325
1!
0.
0/
02
#4330
0!
#4335
1!
#4340
0!
#4345
1!
#4350
0!
#4355
1!
#4360
0!
#4365
1!
1"
1#
b0110 %
b00000000000000000001110110000000 $
#4370
0!
#4375
1!
0"
0#
#4380
0!
#4385
1!
#4390
0!
#4395
1!
#4400
0!
#4405
1!
1.
1/
b0110 0
b00 1
12
#4410
0!
#4415
1!
0.
0/
02
#4420
0!
#4425
1!
#4430
0!
#4435
1!
#4440
0!
#4445
1!
1"
1#
b0111 %
b00000000000000000001110111000000 $
#4450
0!
#4455
1!
0"
0#
#4460
0!
#4465
1!
#4470
0!
#4475
1!
#4480
0!
#4485
1!
#4490
0!
#4495
1!
1.
1/
b0111 0
b00 1
12
#4500
0!
#4505
1!
0.
0/
02
#4510
0!
#4515
1!
#4520
0!
#4525
1!
1"
1#
b1000 %
b00000000000000000001111000000000 $
#4530
0!
#4535
1!
0"
0#
#4540
0!
#4545
1!
1.
1/
b1000 0
b00 1
12
#4550
0!
#4555
1!
0.
0/
02
#4560
0!
#4565
1!
#4570
0!
#4575
1!
#4580
0!
#4585
1!
#4590
0!
#4595
1!
#4600
0!
#4605
1!
1"
1#
b1001 %
b00000000000000000001111001000000 $
#4610
0!
#4615
1!
0"
0#
#4620
0!
#4625
1!
#4630
0!
#4635
1!
1.
1/
b1001 0
b00 1
12
#4640
0!
#4645
1!
0.
0/
02
#4650
0!
#4655
1!
#4660
0!
#4665
1!
#4670
0!
#4675
1!
#4680
0!
#4685
1!
1"
1#
b1010 %
b00000000000000000001111010000000 $
#4690
0!
#4695
1!
0"
0#
#4700
0!
#4705
1!
#4710
0!
#4715
1!
#4720
0!
#4725
1!
1.
1/
b1010 0
b00 1
12
#4730
0!
#4735
1!
0.
0/
02
#4740
0!
#4745
1!
#4750
0!
#4755
1!
#4760
0!
#4765
1!
1"
1#
b1011 %
b00000000000000000001111011000000 $
#4770
0!
#4775
1!
0"
0#
#4780
0!
#4785
1!
#4790
0!
#4795
1!
#4800
0!
#4805
1!
#4810
0!
#4815
1!
1.
1/
b1011 0
b00 1
12
#4820
0!
#4825
1!
0.
0/
02
#4830
0!
#4835
1!
#4840
0!
#4845
1!
1"
1#
b1100 %
b00000000000000000001111100000000 $
#4850
0!
#4855
1!
0"
0#
#4860
0!
#4865
1!
1.
1/
b1100 0
b11 1
12
#4870
0!
#4875
1!
0.
0/
02
b00 1
#4880
0!
#4885
1!
#4890
0!
#4895
1!
#4900
0!
#4905
1!
#4910
0!
#4915
1!
#4920
0!
#4925
1!
1"
1#
b1101 %
b00000000000000000001111101000000 $
#4930
0!
#4935
1!
0"
0#
#4940
0!
#4945
1!
#4950
0!
#4955
1!
1.
1/
b1101 0
b00 1
12
#4960
0!
#4965
1!
0.
0/
02
#4970
0!
#4975
1!
#4980
0!
#4985
1!
#4990
0!
#4995
1!
#5000
0!
#5005
1!
1"
1#
b1110 %
b00000000000000000001111110000000 $
#5010
0!
#5015
1!
0"
0#
#5020
0!
#5025
1!
#5030
0!
#5035
1!
#5040
0!
#5045
1!
1.
1/
b1110 0
b00 1
12
#5050
0!
#5055
1!
0.
0/
02
#5060
0!
#5065
1!
#5070
0!
#5075
1!
#5080
0!
#5085
1!
1"
1#
b1111 %
b00000000000000000001111111000000 $
#5090
0!
#5095
1!
0"
0#
#5100
0!
#5105
1!
#5110
0!
#5115
1!
#5120
0!
#5125
1!
#5130
0!
#5135
1!
1.
1/
b1111 0
b00 1
12
#5140
0!
#5145
1!
0.
0/
02
#5150
0!
#5155
1!
#5160
0!
#5165
1!
1"
1#
b0000 %
b00000000000000000010000000000000 $
#5170
0!
#5175
1!
0"
0#
#5180
0!
#5185
1!
1.
1/
b0000 0
b00 1
12
#5190
0!
#5195
1!
0.
0/
02
#5200
0!
#5205
1!
#5210
0!
#5215
1!
#5220
0!
#5225
1!
#5230
0!
#5235
1!
#5240
0!
#5245
1!
1"
1#
b0001 %
b00000000000000000010000001000000 $
#5250
0!
#5255
1!
0"
0#
#5260
0!
#5265
1!
#5270
0!
#5275
1!
1.
1/
b0001 0
b00 1
12
#5280
0!
#5285
1!
0.
0/
02
#5290
0!
#5295
1!
#5300
0!
#5305
1!
#5310
0!
#5315
1!
#5320
0!
#5325
1!
1"
1#
b0010 %
b00000000000000000010000010000000 $
#5330
0!
#5335
1!
0"
0#
#5340
0!
#5345
1!
#5350
0!
#5355
1!
#5360
0!
#5365
1!
1.
1/
b0010 0
b00 1
12
#5370
0!
#5375
1!
0.
0/
02
#5380
0!
#5385
1!
#5390
0!
#5395
1!
#5400
0!
#5405
1!
1"
1#
b0011 %
b00000000000000000010000011000000 $
#5410
0!
#5415
1!
0"
0#
#5420
0!
#5425
1!
#5430
0!
#5435
1!
#5440
0!
#5445
1!
#5450
0!
#5455
1!
1.
1/
b0011 0
b00 1
12
#5460
0!
#5465
1!
0.
0/
02
#5470
0!
#5475
1!
#5480
0!
#5485
1!
1"
1#
b0100 %
b00000000000000000010000100000000 $
#5490
0!
#5495
1!
0"
0#
#5500
0!
#5505
1!
1.
1/
b0100 0
b00 1
12
#5510
0!
#5515
1!
0.
0/
02
#5520
0!
#5525
1!
#5530
0!
#5535
1!
#5540
0!
#5545
1!
#5550
0!
#5555
1!
#5560
0!
#5565
1!
1"
1#
b0101 %
b00000000000000000010000101000000 $
#5570
0!
#5575
1!
0"
0#
#5580
0!
#5585
1!
#5590
0!
#5595
1!
1.
1/
b0101 0
b00 1
12
#5600
0!
#5605
1!
0.
0/
02
#5610
0!
#5615
1!
#5620
0!
#5625
1!
#5630
0!
#5635
1!
#5640
0!
#5645
1!
1"
1#
b0110 %
b00000000000000000010000110000000 $
#5650
0!
#5655
1!
0"
0#
#5660
0!
#5665
1!
#5670
0!
#5675
1!
#5680
0!
#5685
1!
1.
1/
b0110 0
b00 1
12
#5690
0!
#5695
1!
0.
0/
02
#5700
0!
#5705
1!
#5710
0!
#5715
1!
#5720
0!
#5725
1!
1"
1#
b0111 %
b00000000000000000010000111000000 $
#5730
0!
#5735
1!
0"
0#
#5740
0!
#5745
1!
#5750
0!
#5755
1!
#5760
0!
#5765
1!
#5770
0!
#5775
1!
1.
1/
b0111 0
b00 1
12
#5780
0!
#5785
1!
0.
0/
02
#5790
0!
#5795
1!
#5800
0!
#5805
1!
1"
1#
b1000 %
b00000000000000000010001000000000 $
#5810
0!
#5815
1!
0"
0#
#5820
0!
#5825
1!
1.
1/
b1000 0
b00 1
12
#5830
0!
#5835
1!
0.
0/
02
#5840
0!
#5845
1!
#5850
0!
#5855
1!
#5860
0!
#5865
1!
#5870
0!
#5875
1!
#5880
0!
#5885
1!
1"
1#
b1001 %
b00000000000000000010001001000000 $
#5890
0!
#5895
1!
0"
0#
#5900
0!
#5905
1!
#5910
0!
#5915
1!
1.
1/
b1001 0
b00 1
12
#5920
0!
#5925
1!
0.
0/
02
#5930
0!
#5935
1!
#5940
0!
#5945
1!
#5950
0!
#5955
1!
#5960
0!
#5965
1!
1"
1#
b1010 %
b00000000000000000010001010000000 $
#5970
0!
#5975
1!
0"
0#
#5980
0!
#5985
1!
#5990
0!
#5995
1!
#6000
0!
#6005
1!
1.
1/
b1010 0
b00 1
12
#6010
0!
#6015
1!
0.
0/
02
#6020
0!
#6025
1!
#6030
0!
#6035
1!
#6040
0!
#6045
1!
1"
1#
b1011 %
b00000000000000000010001011000000 $
#6050
0!
#6055
1!
0"
0#
#6060
0!
#6065
1!
#6070
0!
#6075
1!
#6080
0!
#6085
1!
#6090
0!
#6095
1!
1.
1/
b1011 0
b00 1
12
#6100
0!
#6105
1!
0.
0/
02
#6110
0!
#6115
1!
#6120
0!
#6125
1!
1"
1#
b1100 %
b00000000000000000010001100000000 $
#6130
0!
#6135
1!
0"
0#
#6140
0!
#6145
1!
1.
1/
b1100 0
b00 1
12
#6150
0!
#6155
1!
0.
0/
02
#6160
0!
#6165
1!
#6170
0!
#6175
1!
#6180
0!
#6185
1!
#6190
0!
#6195
1!
#6200
0!
#6205
1!
1"
1#
b1101 %
b00000000000000000010001101000000 $
#6210
0!
#6215
1!
0"
0#
#6220
0!
#6225
1!
#6230
0!
#6235
1!
1.
1/
b1101 0
b00 1
12
#6240
0!
#6245
1!
0.
0/
02
#6250
0!
#6255
1!
#6260
0!
#6265
1!
#6270
0!
#6275
1!
#6280
0!
#6285
1!
1"
1#
b1110 %
b00000000000000000010001110000000 $
#6290
0!
#6295
1!
0"
0#
#6300
0!
#6305
1!
#6310
0!
#6315
1!
#6320
0!
#6325
1!
1.
1/
b1110 0
b00 1
12
#6330
0!
#6335
1!
0.
0/
02
#6340
0!
#6345
1!
#6350
0!
#6355
1!
#6360
0!
#6365
1!
1"
1#
b1111 %
b00000000000000000010001111000000 $
#6370
0!
#6375
1!
0"
0#
#6380
0!
#6385
1!
#6390
0!
#6395
1!
#6400
0!
#6405
1!
#6410
0!
#6415
1!
1.
1/
b1111 0
b00 1
12
#6420
0!
#6425
1!
0.
0/
02
#6430
0!
#6435
1!
#6440
0!
#6445
1!
1"
1#
b0000 %
b00000000000000000010010000000000 $
#6450
0!
#6455
1!
0"
0#
#6460
0!
#6465
1!
1.
1/
b0000 0
b10 1
12
#6470
0!
#6475
1!
0.
0/
02
b00 1
#6480
0!
#6485
1!
#6490
0!
#6495
1!
#6500
0!
#6505
1!
#6510
0!
#6515
1!
#6520
0!
#6525
1!
1"
1#
b0001 %
b00000000000000000010010001000000 $
#6530
0!
#6535
1!
0"
0#
#6540
0!
#6545
1!
#6550
0!
#6555
1!
1.
1/
b0001 0
b00 1
12
#6560
0!
#6565
1!
0.
0/
02
#6570
0!
#6575
1!
#6580
0!
#6585
1!
#6590
0!
#6595
1!
#6600
0!
#6605
1!
1"
1#
b0010 %
b00000000000000000010010010000000 $
#6610
0!
#6615
1!
0"
0#
#6620
0!
#6625
1!
#6630
0!
#6635
1!
#6640
0!
#6645
1!
1.
1/
b0010 0
b00 1
12
#6650
0!
#6655
1!
0.
0/
02
#6660
0!
#6665
1!
#6670
0!
#6675
1!
#6680
0!
#6685
1!
1"
1#
b0011 %
b00000000000000000010010011000000 $
#6690
0!
#6695
1!
0"
0#
#6700
0!
#6705
1!
#6710
0!
#6715
1!
#6720
0!
#6725
1!
#6730
0!
#6735
1!
1.
1/
b0011 0
b00 1
12
#6740
0!
#6745
1!
0.
0/
02
